ISO-10303-21;
HEADER;
FILE_DESCRIPTION(('STEP AP203'),'1');
FILE_NAME('atc650s3r9cw200.stp','2021-09-11T17:00:37',('TraceParts'),('TraceParts S.A.'),'Spatial InterOp 3D',' ',' ');
FILE_SCHEMA(('CONFIG_CONTROL_DESIGN'));
ENDSEC;
DATA;
#1=DESIGN_CONTEXT('',#27,'design');
#2=APPLICATION_PROTOCOL_DEFINITION('INTERNATIONAL STANDARD','config_control_design',1994,#27);
#3=PRODUCT_CATEGORY_RELATIONSHIP('NONE','NONE',#28,#29);
#4=DATE_AND_TIME(#30,#31);
#5=DATE_TIME_ROLE('creation_date');
#6=DATE_TIME_ROLE('classification_date');
#7=PERSON_AND_ORGANIZATION_ROLE('creator');
#8=PERSON_AND_ORGANIZATION_ROLE('design_supplier');
#9=PERSON_AND_ORGANIZATION_ROLE('classification_officer');
#10=PERSON_AND_ORGANIZATION_ROLE('design_owner');
#11=APPROVAL_PERSON_ORGANIZATION(#32,#33,#34);
#12=APPROVAL_DATE_TIME(#4,#33);
#13=CC_DESIGN_APPROVAL(#33,(#35,#36,#37));
#14=CC_DESIGN_DATE_AND_TIME_ASSIGNMENT(#4,#5,(#37));
#15=CC_DESIGN_DATE_AND_TIME_ASSIGNMENT(#4,#6,(#35));
#16=CC_DESIGN_PERSON_AND_ORGANIZATION_ASSIGNMENT(#32,#10,(#38));
#17=CC_DESIGN_PERSON_AND_ORGANIZATION_ASSIGNMENT(#32,#7,(#37));
#18=CC_DESIGN_PERSON_AND_ORGANIZATION_ASSIGNMENT(#32,#7,(#36));
#19=CC_DESIGN_PERSON_AND_ORGANIZATION_ASSIGNMENT(#32,#8,(#36));
#20=CC_DESIGN_SECURITY_CLASSIFICATION(#35,(#36));
#21=CC_DESIGN_PERSON_AND_ORGANIZATION_ASSIGNMENT(#32,#9,(#35));
#22=SHAPE_DEFINITION_REPRESENTATION(#39,#40);
#23= (GEOMETRIC_REPRESENTATION_CONTEXT(3)GLOBAL_UNCERTAINTY_ASSIGNED_CONTEXT((#43))GLOBAL_UNIT_ASSIGNED_CONTEXT((#45,#46,#47))REPRESENTATION_CONTEXT('NONE','WORKSPACE'));
#27=APPLICATION_CONTEXT('CONFIGURATION CONTROLLED 3D DESIGNS OF MECHANICAL PARTS AND ASSEMBLIES');
#28=PRODUCT_CATEGORY('part','NONE');
#29=PRODUCT_RELATED_PRODUCT_CATEGORY('detail',' ',(#38));
#30=CALENDAR_DATE(2021,11,8);
#31=LOCAL_TIME(19,0,37.0,#49);
#32=PERSON_AND_ORGANIZATION(#50,#51);
#33=APPROVAL(#52,'SOLID MODEL');
#34=APPROVAL_ROLE('APPROVED');
#35=SECURITY_CLASSIFICATION('','',#53);
#36=PRODUCT_DEFINITION_FORMATION_WITH_SPECIFIED_SOURCE(' ','NONE',#38,.NOT_KNOWN.);
#37=PRODUCT_DEFINITION('','NONE',#36,#1);
#38=PRODUCT('1','','PART--DESC',(#54));
#39=PRODUCT_DEFINITION_SHAPE('NONE','NONE',#37);
#40=ADVANCED_BREP_SHAPE_REPRESENTATION('1',(#55,#56),#23);
#43=UNCERTAINTY_MEASURE_WITH_UNIT(LENGTH_MEASURE(1.0E-06),#45,'','');
#45= (CONVERSION_BASED_UNIT('MILLIMETRE',#59)LENGTH_UNIT()NAMED_UNIT(#62));
#46= (NAMED_UNIT(#64)PLANE_ANGLE_UNIT()SI_UNIT($,.RADIAN.));
#47= (NAMED_UNIT(#64)SOLID_ANGLE_UNIT()SI_UNIT($,.STERADIAN.));
#49=COORDINATED_UNIVERSAL_TIME_OFFSET(1,0,.AHEAD.);
#50=PERSON('','UNSPECIFIED',$,$,$,$);
#51=ORGANIZATION('UNSPECIFIED','UNSPECIFIED','UNSPECIFIED');
#52=APPROVAL_STATUS('approved');
#53=SECURITY_CLASSIFICATION_LEVEL('unclassified');
#54=MECHANICAL_CONTEXT('',#27,'mechanical');
#55=MANIFOLD_SOLID_BREP('1',#70);
#56=AXIS2_PLACEMENT_3D('',#71,#72,#73);
#59=LENGTH_MEASURE_WITH_UNIT(LENGTH_MEASURE(1.0),#74);
#62=DIMENSIONAL_EXPONENTS(1.0,0.0,0.0,0.0,0.0,0.0,0.0);
#64=DIMENSIONAL_EXPONENTS(0.0,0.0,0.0,0.0,0.0,0.0,0.0);
#70=CLOSED_SHELL('',(#75,#76,#77,#78,#79,#80,#81,#82,#83,#84,#85,#86,#87,#88,#89,#90,#91,#92,#93,#94,#95,#96,#97,#98,#99,#100,#101,#102,#103,#104,#105,#106,#107,#108,#109,#110,#111,#112,#113,#114,#115,#116));
#71=CARTESIAN_POINT('',(0.0,0.0,0.0));
#72=DIRECTION('',(0.0,0.0,1.0));
#73=DIRECTION('',(1.0,0.0,0.0));
#74= (NAMED_UNIT(#62)LENGTH_UNIT()SI_UNIT(.MILLI.,.METRE.));
#75=ADVANCED_FACE('',(#118),#119,.T.);
#76=ADVANCED_FACE('',(#120),#121,.T.);
#77=ADVANCED_FACE('',(#122),#123,.F.);
#78=ADVANCED_FACE('',(#124),#125,.T.);
#79=ADVANCED_FACE('',(#126),#127,.F.);
#80=ADVANCED_FACE('',(#128),#129,.T.);
#81=ADVANCED_FACE('',(#130),#131,.T.);
#82=ADVANCED_FACE('',(#132),#133,.T.);
#83=ADVANCED_FACE('',(#134),#135,.T.);
#84=ADVANCED_FACE('',(#136),#137,.T.);
#85=ADVANCED_FACE('',(#138),#139,.T.);
#86=ADVANCED_FACE('',(#140),#141,.T.);
#87=ADVANCED_FACE('',(#142),#143,.F.);
#88=ADVANCED_FACE('',(#144),#145,.T.);
#89=ADVANCED_FACE('',(#146),#147,.F.);
#90=ADVANCED_FACE('',(#148),#149,.T.);
#91=ADVANCED_FACE('',(#150),#151,.T.);
#92=ADVANCED_FACE('',(#152),#153,.T.);
#93=ADVANCED_FACE('',(#154),#155,.F.);
#94=ADVANCED_FACE('',(#156),#157,.F.);
#95=ADVANCED_FACE('',(#158),#159,.T.);
#96=ADVANCED_FACE('',(#160),#161,.T.);
#97=ADVANCED_FACE('',(#162),#163,.T.);
#98=ADVANCED_FACE('',(#164),#165,.F.);
#99=ADVANCED_FACE('',(#166),#167,.F.);
#100=ADVANCED_FACE('',(#168),#169,.T.);
#101=ADVANCED_FACE('',(#170),#171,.T.);
#102=ADVANCED_FACE('',(#172),#173,.F.);
#103=ADVANCED_FACE('',(#174),#175,.F.);
#104=ADVANCED_FACE('',(#176),#177,.T.);
#105=ADVANCED_FACE('',(#178),#179,.T.);
#106=ADVANCED_FACE('',(#180),#181,.T.);
#107=ADVANCED_FACE('',(#182),#183,.T.);
#108=ADVANCED_FACE('',(#184),#185,.T.);
#109=ADVANCED_FACE('',(#186),#187,.T.);
#110=ADVANCED_FACE('',(#188),#189,.T.);
#111=ADVANCED_FACE('',(#190),#191,.T.);
#112=ADVANCED_FACE('',(#192),#193,.T.);
#113=ADVANCED_FACE('',(#194),#195,.F.);
#114=ADVANCED_FACE('',(#196),#197,.T.);
#115=ADVANCED_FACE('',(#198),#199,.T.);
#116=ADVANCED_FACE('',(#200),#201,.T.);
#118=FACE_OUTER_BOUND('',#202,.T.);
#119=PLANE('',#203);
#120=FACE_OUTER_BOUND('',#204,.T.);
#121=PLANE('',#205);
#122=FACE_OUTER_BOUND('',#206,.T.);
#123=CYLINDRICAL_SURFACE('',#207,0.01);
#124=FACE_OUTER_BOUND('',#208,.T.);
#125=PLANE('',#209);
#126=FACE_OUTER_BOUND('',#210,.T.);
#127=CYLINDRICAL_SURFACE('',#211,0.01);
#128=FACE_OUTER_BOUND('',#212,.T.);
#129=PLANE('',#213);
#130=FACE_OUTER_BOUND('',#214,.T.);
#131=PLANE('',#215);
#132=FACE_OUTER_BOUND('',#216,.T.);
#133=CYLINDRICAL_SURFACE('',#217,0.03);
#134=FACE_OUTER_BOUND('',#218,.T.);
#135=PLANE('',#219);
#136=FACE_OUTER_BOUND('',#220,.T.);
#137=CYLINDRICAL_SURFACE('',#221,0.03);
#138=FACE_OUTER_BOUND('',#222,.T.);
#139=PLANE('',#223);
#140=FACE_OUTER_BOUND('',#224,.T.);
#141=PLANE('',#225);
#142=FACE_OUTER_BOUND('',#226,.T.);
#143=CYLINDRICAL_SURFACE('',#227,0.01);
#144=FACE_OUTER_BOUND('',#228,.T.);
#145=PLANE('',#229);
#146=FACE_OUTER_BOUND('',#230,.T.);
#147=CYLINDRICAL_SURFACE('',#231,0.01);
#148=FACE_OUTER_BOUND('',#232,.T.);
#149=PLANE('',#233);
#150=FACE_OUTER_BOUND('',#234,.T.);
#151=PLANE('',#235);
#152=FACE_OUTER_BOUND('',#236,.T.);
#153=PLANE('',#237);
#154=FACE_OUTER_BOUND('',#238,.T.);
#155=PLANE('',#239);
#156=FACE_OUTER_BOUND('',#240,.T.);
#157=PLANE('',#241);
#158=FACE_OUTER_BOUND('',#242,.T.);
#159=PLANE('',#243);
#160=FACE_OUTER_BOUND('',#244,.T.);
#161=PLANE('',#245);
#162=FACE_OUTER_BOUND('',#246,.T.);
#163=PLANE('',#247);
#164=FACE_OUTER_BOUND('',#248,.T.);
#165=CYLINDRICAL_SURFACE('',#249,0.01);
#166=FACE_OUTER_BOUND('',#250,.T.);
#167=CYLINDRICAL_SURFACE('',#251,0.01);
#168=FACE_OUTER_BOUND('',#252,.T.);
#169=PLANE('',#253);
#170=FACE_OUTER_BOUND('',#254,.T.);
#171=PLANE('',#255);
#172=FACE_OUTER_BOUND('',#256,.T.);
#173=CYLINDRICAL_SURFACE('',#257,0.01);
#174=FACE_OUTER_BOUND('',#258,.T.);
#175=CYLINDRICAL_SURFACE('',#259,0.01);
#176=FACE_OUTER_BOUND('',#260,.T.);
#177=PLANE('',#261);
#178=FACE_OUTER_BOUND('',#262,.T.);
#179=PLANE('',#263);
#180=FACE_OUTER_BOUND('',#264,.T.);
#181=PLANE('',#265);
#182=FACE_OUTER_BOUND('',#266,.T.);
#183=CYLINDRICAL_SURFACE('',#267,0.03);
#184=FACE_OUTER_BOUND('',#268,.T.);
#185=PLANE('',#269);
#186=FACE_OUTER_BOUND('',#270,.T.);
#187=CYLINDRICAL_SURFACE('',#271,0.03);
#188=FACE_OUTER_BOUND('',#272,.T.);
#189=PLANE('',#273);
#190=FACE_OUTER_BOUND('',#274,.T.);
#191=PLANE('',#275);
#192=FACE_OUTER_BOUND('',#276,.T.);
#193=PLANE('',#277);
#194=FACE_OUTER_BOUND('',#278,.T.);
#195=PLANE('',#279);
#196=FACE_OUTER_BOUND('',#280,.T.);
#197=PLANE('',#281);
#198=FACE_OUTER_BOUND('',#282,.T.);
#199=PLANE('',#283);
#200=FACE_OUTER_BOUND('',#284,.T.);
#201=PLANE('',#285);
#202=EDGE_LOOP('',(#286,#287,#288,#289,#290,#291,#292,#293));
#203=AXIS2_PLACEMENT_3D('',#294,#295,#296);
#204=EDGE_LOOP('',(#297,#298,#299,#300));
#205=AXIS2_PLACEMENT_3D('',#301,#302,#303);
#206=EDGE_LOOP('',(#304,#305,#306,#307));
#207=AXIS2_PLACEMENT_3D('',#308,#309,#310);
#208=EDGE_LOOP('',(#311,#312,#313,#314));
#209=AXIS2_PLACEMENT_3D('',#315,#316,#317);
#210=EDGE_LOOP('',(#318,#319,#320,#321));
#211=AXIS2_PLACEMENT_3D('',#322,#323,#324);
#212=EDGE_LOOP('',(#325,#326,#327,#328,#329,#330,#331,#332));
#213=AXIS2_PLACEMENT_3D('',#333,#334,#335);
#214=EDGE_LOOP('',(#336,#337,#338,#339));
#215=AXIS2_PLACEMENT_3D('',#340,#341,#342);
#216=EDGE_LOOP('',(#343,#344,#345,#346));
#217=AXIS2_PLACEMENT_3D('',#347,#348,#349);
#218=EDGE_LOOP('',(#350,#351,#352,#353));
#219=AXIS2_PLACEMENT_3D('',#354,#355,#356);
#220=EDGE_LOOP('',(#357,#358,#359,#360));
#221=AXIS2_PLACEMENT_3D('',#361,#362,#363);
#222=EDGE_LOOP('',(#364,#365,#366,#367));
#223=AXIS2_PLACEMENT_3D('',#368,#369,#370);
#224=EDGE_LOOP('',(#371,#372,#373,#374));
#225=AXIS2_PLACEMENT_3D('',#375,#376,#377);
#226=EDGE_LOOP('',(#378,#379,#380,#381));
#227=AXIS2_PLACEMENT_3D('',#382,#383,#384);
#228=EDGE_LOOP('',(#385,#386,#387,#388));
#229=AXIS2_PLACEMENT_3D('',#389,#390,#391);
#230=EDGE_LOOP('',(#392,#393,#394,#395));
#231=AXIS2_PLACEMENT_3D('',#396,#397,#398);
#232=EDGE_LOOP('',(#399,#400,#401,#402));
#233=AXIS2_PLACEMENT_3D('',#403,#404,#405);
#234=EDGE_LOOP('',(#406,#407,#408,#409));
#235=AXIS2_PLACEMENT_3D('',#410,#411,#412);
#236=EDGE_LOOP('',(#413,#414,#415,#416,#417,#418,#419,#420,#421,#422,#423,#424));
#237=AXIS2_PLACEMENT_3D('',#425,#426,#427);
#238=EDGE_LOOP('',(#428,#429,#430,#431,#432,#433,#434,#435,#436,#437,#438,#439));
#239=AXIS2_PLACEMENT_3D('',#440,#441,#442);
#240=EDGE_LOOP('',(#443,#444,#445,#446,#447,#448,#449,#450,#451,#452,#453,#454,#455,#456,#457,#458));
#241=AXIS2_PLACEMENT_3D('',#459,#460,#461);
#242=EDGE_LOOP('',(#462,#463,#464,#465,#466,#467,#468,#469));
#243=AXIS2_PLACEMENT_3D('',#470,#471,#472);
#244=EDGE_LOOP('',(#473,#474,#475,#476));
#245=AXIS2_PLACEMENT_3D('',#477,#478,#479);
#246=EDGE_LOOP('',(#480,#481,#482,#483));
#247=AXIS2_PLACEMENT_3D('',#484,#485,#486);
#248=EDGE_LOOP('',(#487,#488,#489,#490));
#249=AXIS2_PLACEMENT_3D('',#491,#492,#493);
#250=EDGE_LOOP('',(#494,#495,#496,#497));
#251=AXIS2_PLACEMENT_3D('',#498,#499,#500);
#252=EDGE_LOOP('',(#501,#502,#503,#504));
#253=AXIS2_PLACEMENT_3D('',#505,#506,#507);
#254=EDGE_LOOP('',(#508,#509,#510,#511));
#255=AXIS2_PLACEMENT_3D('',#512,#513,#514);
#256=EDGE_LOOP('',(#515,#516,#517,#518));
#257=AXIS2_PLACEMENT_3D('',#519,#520,#521);
#258=EDGE_LOOP('',(#522,#523,#524,#525));
#259=AXIS2_PLACEMENT_3D('',#526,#527,#528);
#260=EDGE_LOOP('',(#529,#530,#531,#532));
#261=AXIS2_PLACEMENT_3D('',#533,#534,#535);
#262=EDGE_LOOP('',(#536,#537,#538,#539));
#263=AXIS2_PLACEMENT_3D('',#540,#541,#542);
#264=EDGE_LOOP('',(#543,#544,#545,#546,#547,#548,#549,#550));
#265=AXIS2_PLACEMENT_3D('',#551,#552,#553);
#266=EDGE_LOOP('',(#554,#555,#556,#557));
#267=AXIS2_PLACEMENT_3D('',#558,#559,#560);
#268=EDGE_LOOP('',(#561,#562,#563,#564));
#269=AXIS2_PLACEMENT_3D('',#565,#566,#567);
#270=EDGE_LOOP('',(#568,#569,#570,#571));
#271=AXIS2_PLACEMENT_3D('',#572,#573,#574);
#272=EDGE_LOOP('',(#575,#576,#577,#578));
#273=AXIS2_PLACEMENT_3D('',#579,#580,#581);
#274=EDGE_LOOP('',(#582,#583,#584,#585));
#275=AXIS2_PLACEMENT_3D('',#586,#587,#588);
#276=EDGE_LOOP('',(#589,#590,#591,#592,#593,#594,#595,#596,#597,#598,#599,#600));
#277=AXIS2_PLACEMENT_3D('',#601,#602,#603);
#278=EDGE_LOOP('',(#604,#605,#606,#607,#608,#609,#610,#611,#612,#613,#614,#615));
#279=AXIS2_PLACEMENT_3D('',#616,#617,#618);
#280=EDGE_LOOP('',(#619,#620,#621,#622,#623,#624,#625,#626,#627,#628,#629,#630,#631,#632,#633,#634));
#281=AXIS2_PLACEMENT_3D('',#635,#636,#637);
#282=EDGE_LOOP('',(#638,#639,#640,#641));
#283=AXIS2_PLACEMENT_3D('',#642,#643,#644);
#284=EDGE_LOOP('',(#645,#646,#647,#648));
#285=AXIS2_PLACEMENT_3D('',#649,#650,#651);
#286=ORIENTED_EDGE('',*,*,#652,.T.);
#287=ORIENTED_EDGE('',*,*,#653,.T.);
#288=ORIENTED_EDGE('',*,*,#654,.F.);
#289=ORIENTED_EDGE('',*,*,#655,.F.);
#290=ORIENTED_EDGE('',*,*,#656,.F.);
#291=ORIENTED_EDGE('',*,*,#657,.T.);
#292=ORIENTED_EDGE('',*,*,#658,.T.);
#293=ORIENTED_EDGE('',*,*,#659,.F.);
#294=CARTESIAN_POINT('',(0.5,0.434999999999989,0.8));
#295=DIRECTION('',(-1.0,3.70074341541718E-15,-1.22460635382238E-16));
#296=DIRECTION('',(-1.22460635382238E-16,0.0,1.0));
#297=ORIENTED_EDGE('',*,*,#660,.F.);
#298=ORIENTED_EDGE('',*,*,#661,.F.);
#299=ORIENTED_EDGE('',*,*,#662,.F.);
#300=ORIENTED_EDGE('',*,*,#655,.T.);
#301=CARTESIAN_POINT('',(0.629999999999991,0.419999999999989,0.8));
#302=DIRECTION('',(0.0,-1.0,0.0));
#303=DIRECTION('',(0.0,0.0,-1.0));
#304=ORIENTED_EDGE('',*,*,#663,.F.);
#305=ORIENTED_EDGE('',*,*,#664,.F.);
#306=ORIENTED_EDGE('',*,*,#665,.F.);
#307=ORIENTED_EDGE('',*,*,#661,.T.);
#308=CARTESIAN_POINT('',(0.759999999999983,0.409999999999989,0.8));
#309=DIRECTION('',(-1.22460635382238E-16,0.0,1.0));
#310=DIRECTION('',(-1.0,0.0,-1.22460635382238E-16));
#311=ORIENTED_EDGE('',*,*,#666,.F.);
#312=ORIENTED_EDGE('',*,*,#667,.F.);
#313=ORIENTED_EDGE('',*,*,#668,.F.);
#314=ORIENTED_EDGE('',*,*,#664,.T.);
#315=CARTESIAN_POINT('',(0.769999999999983,0.224999999999994,0.8));
#316=DIRECTION('',(-1.0,0.0,-1.22460635382238E-16));
#317=DIRECTION('',(-1.22460635382238E-16,0.0,1.0));
#318=ORIENTED_EDGE('',*,*,#669,.F.);
#319=ORIENTED_EDGE('',*,*,#670,.F.);
#320=ORIENTED_EDGE('',*,*,#671,.F.);
#321=ORIENTED_EDGE('',*,*,#667,.T.);
#322=CARTESIAN_POINT('',(0.759999999999983,0.04,0.8));
#323=DIRECTION('',(-1.22460635382238E-16,0.0,1.0));
#324=DIRECTION('',(-1.0,0.0,-1.22460635382238E-16));
#325=ORIENTED_EDGE('',*,*,#672,.F.);
#326=ORIENTED_EDGE('',*,*,#673,.T.);
#327=ORIENTED_EDGE('',*,*,#674,.T.);
#328=ORIENTED_EDGE('',*,*,#675,.F.);
#329=ORIENTED_EDGE('',*,*,#676,.F.);
#330=ORIENTED_EDGE('',*,*,#677,.T.);
#331=ORIENTED_EDGE('',*,*,#678,.F.);
#332=ORIENTED_EDGE('',*,*,#679,.F.);
#333=CARTESIAN_POINT('',(0.5,0.015,0.8));
#334=DIRECTION('',(-1.0,0.0,-1.22460635382238E-16));
#335=DIRECTION('',(-1.22460635382238E-16,0.0,1.0));
#336=ORIENTED_EDGE('',*,*,#680,.F.);
#337=ORIENTED_EDGE('',*,*,#677,.F.);
#338=ORIENTED_EDGE('',*,*,#681,.F.);
#339=ORIENTED_EDGE('',*,*,#670,.T.);
#340=CARTESIAN_POINT('',(0.629999999999991,0.03,0.8));
#341=DIRECTION('',(-0.0,1.0,0.0));
#342=DIRECTION('',(1.0,0.0,0.0));
#343=ORIENTED_EDGE('',*,*,#682,.T.);
#344=ORIENTED_EDGE('',*,*,#683,.F.);
#345=ORIENTED_EDGE('',*,*,#684,.T.);
#346=ORIENTED_EDGE('',*,*,#685,.T.);
#347=CARTESIAN_POINT('',(0.769999999999982,0.0300000000000011,0.8));
#348=DIRECTION('',(-1.22460635382238E-16,0.0,1.0));
#349=DIRECTION('',(-1.0,0.0,-1.22460635382238E-16));
#350=ORIENTED_EDGE('',*,*,#686,.T.);
#351=ORIENTED_EDGE('',*,*,#687,.F.);
#352=ORIENTED_EDGE('',*,*,#688,.T.);
#353=ORIENTED_EDGE('',*,*,#683,.T.);
#354=CARTESIAN_POINT('',(0.799999999999983,0.224999999999994,0.8));
#355=DIRECTION('',(1.0,0.0,1.22460635382238E-16));
#356=DIRECTION('',(-1.22460635382238E-16,0.0,1.0));
#357=ORIENTED_EDGE('',*,*,#689,.T.);
#358=ORIENTED_EDGE('',*,*,#690,.F.);
#359=ORIENTED_EDGE('',*,*,#691,.T.);
#360=ORIENTED_EDGE('',*,*,#687,.T.);
#361=CARTESIAN_POINT('',(0.769999999999982,0.419999999999987,0.8));
#362=DIRECTION('',(-1.22460635382238E-16,0.0,1.0));
#363=DIRECTION('',(-1.0,0.0,-1.22460635382238E-16));
#364=ORIENTED_EDGE('',*,*,#692,.T.);
#365=ORIENTED_EDGE('',*,*,#657,.F.);
#366=ORIENTED_EDGE('',*,*,#693,.T.);
#367=ORIENTED_EDGE('',*,*,#690,.T.);
#368=CARTESIAN_POINT('',(0.634999999999991,0.449999999999989,0.8));
#369=DIRECTION('',(0.0,1.0,0.0));
#370=DIRECTION('',(1.0,0.0,-0.0));
#371=ORIENTED_EDGE('',*,*,#694,.F.);
#372=ORIENTED_EDGE('',*,*,#659,.T.);
#373=ORIENTED_EDGE('',*,*,#695,.T.);
#374=ORIENTED_EDGE('',*,*,#696,.F.);
#375=CARTESIAN_POINT('',(0.629999999999991,0.419999999999989,0.8));
#376=DIRECTION('',(0.0,-1.0,0.0));
#377=DIRECTION('',(0.0,0.0,-1.0));
#378=ORIENTED_EDGE('',*,*,#697,.F.);
#379=ORIENTED_EDGE('',*,*,#696,.T.);
#380=ORIENTED_EDGE('',*,*,#698,.T.);
#381=ORIENTED_EDGE('',*,*,#699,.F.);
#382=CARTESIAN_POINT('',(0.759999999999983,0.409999999999989,0.8));
#383=DIRECTION('',(-1.22460635382238E-16,0.0,1.0));
#384=DIRECTION('',(-1.0,0.0,-1.22460635382238E-16));
#385=ORIENTED_EDGE('',*,*,#700,.F.);
#386=ORIENTED_EDGE('',*,*,#699,.T.);
#387=ORIENTED_EDGE('',*,*,#701,.T.);
#388=ORIENTED_EDGE('',*,*,#702,.F.);
#389=CARTESIAN_POINT('',(0.769999999999983,0.224999999999994,0.8));
#390=DIRECTION('',(-1.0,0.0,-1.22460635382238E-16));
#391=DIRECTION('',(-1.22460635382238E-16,0.0,1.0));
#392=ORIENTED_EDGE('',*,*,#703,.F.);
#393=ORIENTED_EDGE('',*,*,#702,.T.);
#394=ORIENTED_EDGE('',*,*,#704,.T.);
#395=ORIENTED_EDGE('',*,*,#705,.F.);
#396=CARTESIAN_POINT('',(0.759999999999983,0.04,0.8));
#397=DIRECTION('',(-1.22460635382238E-16,0.0,1.0));
#398=DIRECTION('',(-1.0,0.0,-1.22460635382238E-16));
#399=ORIENTED_EDGE('',*,*,#706,.F.);
#400=ORIENTED_EDGE('',*,*,#705,.T.);
#401=ORIENTED_EDGE('',*,*,#707,.T.);
#402=ORIENTED_EDGE('',*,*,#673,.F.);
#403=CARTESIAN_POINT('',(0.629999999999991,0.03,0.8));
#404=DIRECTION('',(-0.0,1.0,0.0));
#405=DIRECTION('',(1.0,0.0,0.0));
#406=ORIENTED_EDGE('',*,*,#708,.T.);
#407=ORIENTED_EDGE('',*,*,#685,.F.);
#408=ORIENTED_EDGE('',*,*,#709,.T.);
#409=ORIENTED_EDGE('',*,*,#675,.T.);
#410=CARTESIAN_POINT('',(0.634999999999991,0.0,0.8));
#411=DIRECTION('',(0.0,-1.0,0.0));
#412=DIRECTION('',(0.0,0.0,-1.0));
#413=ORIENTED_EDGE('',*,*,#682,.F.);
#414=ORIENTED_EDGE('',*,*,#708,.F.);
#415=ORIENTED_EDGE('',*,*,#674,.F.);
#416=ORIENTED_EDGE('',*,*,#707,.F.);
#417=ORIENTED_EDGE('',*,*,#704,.F.);
#418=ORIENTED_EDGE('',*,*,#701,.F.);
#419=ORIENTED_EDGE('',*,*,#698,.F.);
#420=ORIENTED_EDGE('',*,*,#695,.F.);
#421=ORIENTED_EDGE('',*,*,#658,.F.);
#422=ORIENTED_EDGE('',*,*,#692,.F.);
#423=ORIENTED_EDGE('',*,*,#689,.F.);
#424=ORIENTED_EDGE('',*,*,#686,.F.);
#425=CARTESIAN_POINT('',(0.695931292793059,0.224999999999994,1.11022302462516E-16));
#426=DIRECTION('',(1.22460635382238E-16,0.0,-1.0));
#427=DIRECTION('',(0.0,-1.0,0.0));
#428=ORIENTED_EDGE('',*,*,#709,.F.);
#429=ORIENTED_EDGE('',*,*,#684,.F.);
#430=ORIENTED_EDGE('',*,*,#688,.F.);
#431=ORIENTED_EDGE('',*,*,#691,.F.);
#432=ORIENTED_EDGE('',*,*,#693,.F.);
#433=ORIENTED_EDGE('',*,*,#656,.T.);
#434=ORIENTED_EDGE('',*,*,#662,.T.);
#435=ORIENTED_EDGE('',*,*,#665,.T.);
#436=ORIENTED_EDGE('',*,*,#668,.T.);
#437=ORIENTED_EDGE('',*,*,#671,.T.);
#438=ORIENTED_EDGE('',*,*,#681,.T.);
#439=ORIENTED_EDGE('',*,*,#676,.T.);
#440=CARTESIAN_POINT('',(0.695931292793059,0.224999999999994,0.8));
#441=DIRECTION('',(1.22460635382238E-16,0.0,-1.0));
#442=DIRECTION('',(0.0,-1.0,0.0));
#443=ORIENTED_EDGE('',*,*,#652,.F.);
#444=ORIENTED_EDGE('',*,*,#694,.T.);
#445=ORIENTED_EDGE('',*,*,#697,.T.);
#446=ORIENTED_EDGE('',*,*,#700,.T.);
#447=ORIENTED_EDGE('',*,*,#703,.T.);
#448=ORIENTED_EDGE('',*,*,#706,.T.);
#449=ORIENTED_EDGE('',*,*,#672,.T.);
#450=ORIENTED_EDGE('',*,*,#710,.F.);
#451=ORIENTED_EDGE('',*,*,#711,.F.);
#452=ORIENTED_EDGE('',*,*,#712,.T.);
#453=ORIENTED_EDGE('',*,*,#713,.T.);
#454=ORIENTED_EDGE('',*,*,#714,.T.);
#455=ORIENTED_EDGE('',*,*,#715,.T.);
#456=ORIENTED_EDGE('',*,*,#716,.T.);
#457=ORIENTED_EDGE('',*,*,#717,.F.);
#458=ORIENTED_EDGE('',*,*,#718,.F.);
#459=CARTESIAN_POINT('',(2.54518628395317E-14,0.224999999999994,0.005));
#460=DIRECTION('',(0.0,0.0,1.0));
#461=DIRECTION('',(1.0,0.0,0.0));
#462=ORIENTED_EDGE('',*,*,#717,.T.);
#463=ORIENTED_EDGE('',*,*,#719,.F.);
#464=ORIENTED_EDGE('',*,*,#720,.F.);
#465=ORIENTED_EDGE('',*,*,#721,.T.);
#466=ORIENTED_EDGE('',*,*,#722,.T.);
#467=ORIENTED_EDGE('',*,*,#723,.F.);
#468=ORIENTED_EDGE('',*,*,#724,.F.);
#469=ORIENTED_EDGE('',*,*,#725,.F.);
#470=CARTESIAN_POINT('',(-0.5,0.434999999999989,0.0));
#471=DIRECTION('',(1.0,3.70074341541718E-15,-0.0));
#472=DIRECTION('',(-3.70074341541718E-15,1.0,0.0));
#473=ORIENTED_EDGE('',*,*,#726,.F.);
#474=ORIENTED_EDGE('',*,*,#723,.T.);
#475=ORIENTED_EDGE('',*,*,#727,.T.);
#476=ORIENTED_EDGE('',*,*,#728,.F.);
#477=CARTESIAN_POINT('',(-0.629999999999991,0.419999999999989,0.0));
#478=DIRECTION('',(0.0,-1.0,0.0));
#479=DIRECTION('',(0.0,0.0,-1.0));
#480=ORIENTED_EDGE('',*,*,#716,.F.);
#481=ORIENTED_EDGE('',*,*,#729,.F.);
#482=ORIENTED_EDGE('',*,*,#730,.F.);
#483=ORIENTED_EDGE('',*,*,#719,.T.);
#484=CARTESIAN_POINT('',(-0.629999999999991,0.419999999999989,0.0));
#485=DIRECTION('',(0.0,-1.0,0.0));
#486=DIRECTION('',(0.0,0.0,-1.0));
#487=ORIENTED_EDGE('',*,*,#731,.F.);
#488=ORIENTED_EDGE('',*,*,#728,.T.);
#489=ORIENTED_EDGE('',*,*,#732,.T.);
#490=ORIENTED_EDGE('',*,*,#733,.F.);
#491=CARTESIAN_POINT('',(-0.759999999999983,0.409999999999989,0.0));
#492=DIRECTION('',(0.0,0.0,-1.0));
#493=DIRECTION('',(1.0,0.0,0.0));
#494=ORIENTED_EDGE('',*,*,#715,.F.);
#495=ORIENTED_EDGE('',*,*,#734,.F.);
#496=ORIENTED_EDGE('',*,*,#735,.F.);
#497=ORIENTED_EDGE('',*,*,#729,.T.);
#498=CARTESIAN_POINT('',(-0.759999999999983,0.409999999999989,0.0));
#499=DIRECTION('',(0.0,0.0,-1.0));
#500=DIRECTION('',(1.0,0.0,0.0));
#501=ORIENTED_EDGE('',*,*,#736,.F.);
#502=ORIENTED_EDGE('',*,*,#733,.T.);
#503=ORIENTED_EDGE('',*,*,#737,.T.);
#504=ORIENTED_EDGE('',*,*,#738,.F.);
#505=CARTESIAN_POINT('',(-0.769999999999983,0.224999999999994,0.0));
#506=DIRECTION('',(1.0,0.0,-0.0));
#507=DIRECTION('',(-0.0,1.0,0.0));
#508=ORIENTED_EDGE('',*,*,#714,.F.);
#509=ORIENTED_EDGE('',*,*,#739,.F.);
#510=ORIENTED_EDGE('',*,*,#740,.F.);
#511=ORIENTED_EDGE('',*,*,#734,.T.);
#512=CARTESIAN_POINT('',(-0.769999999999983,0.224999999999994,0.0));
#513=DIRECTION('',(1.0,0.0,-0.0));
#514=DIRECTION('',(-0.0,1.0,0.0));
#515=ORIENTED_EDGE('',*,*,#741,.F.);
#516=ORIENTED_EDGE('',*,*,#738,.T.);
#517=ORIENTED_EDGE('',*,*,#742,.T.);
#518=ORIENTED_EDGE('',*,*,#743,.F.);
#519=CARTESIAN_POINT('',(-0.759999999999983,0.04,0.0));
#520=DIRECTION('',(0.0,0.0,-1.0));
#521=DIRECTION('',(1.0,0.0,0.0));
#522=ORIENTED_EDGE('',*,*,#713,.F.);
#523=ORIENTED_EDGE('',*,*,#744,.F.);
#524=ORIENTED_EDGE('',*,*,#745,.F.);
#525=ORIENTED_EDGE('',*,*,#739,.T.);
#526=CARTESIAN_POINT('',(-0.759999999999983,0.04,0.0));
#527=DIRECTION('',(0.0,0.0,-1.0));
#528=DIRECTION('',(1.0,0.0,0.0));
#529=ORIENTED_EDGE('',*,*,#746,.F.);
#530=ORIENTED_EDGE('',*,*,#743,.T.);
#531=ORIENTED_EDGE('',*,*,#747,.T.);
#532=ORIENTED_EDGE('',*,*,#748,.F.);
#533=CARTESIAN_POINT('',(-0.629999999999991,0.03,0.0));
#534=DIRECTION('',(-0.0,1.0,0.0));
#535=DIRECTION('',(1.0,0.0,0.0));
#536=ORIENTED_EDGE('',*,*,#712,.F.);
#537=ORIENTED_EDGE('',*,*,#749,.F.);
#538=ORIENTED_EDGE('',*,*,#750,.F.);
#539=ORIENTED_EDGE('',*,*,#744,.T.);
#540=CARTESIAN_POINT('',(-0.629999999999991,0.03,0.0));
#541=DIRECTION('',(-0.0,1.0,0.0));
#542=DIRECTION('',(1.0,0.0,0.0));
#543=ORIENTED_EDGE('',*,*,#711,.T.);
#544=ORIENTED_EDGE('',*,*,#751,.T.);
#545=ORIENTED_EDGE('',*,*,#752,.F.);
#546=ORIENTED_EDGE('',*,*,#748,.T.);
#547=ORIENTED_EDGE('',*,*,#753,.T.);
#548=ORIENTED_EDGE('',*,*,#754,.F.);
#549=ORIENTED_EDGE('',*,*,#755,.F.);
#550=ORIENTED_EDGE('',*,*,#749,.T.);
#551=CARTESIAN_POINT('',(-0.5,0.015,0.0));
#552=DIRECTION('',(1.0,0.0,-0.0));
#553=DIRECTION('',(-0.0,1.0,0.0));
#554=ORIENTED_EDGE('',*,*,#756,.T.);
#555=ORIENTED_EDGE('',*,*,#757,.F.);
#556=ORIENTED_EDGE('',*,*,#758,.T.);
#557=ORIENTED_EDGE('',*,*,#759,.T.);
#558=CARTESIAN_POINT('',(-0.769999999999982,0.0300000000000011,0.0));
#559=DIRECTION('',(0.0,0.0,-1.0));
#560=DIRECTION('',(1.0,0.0,0.0));
#561=ORIENTED_EDGE('',*,*,#760,.T.);
#562=ORIENTED_EDGE('',*,*,#761,.F.);
#563=ORIENTED_EDGE('',*,*,#762,.T.);
#564=ORIENTED_EDGE('',*,*,#757,.T.);
#565=CARTESIAN_POINT('',(-0.799999999999983,0.224999999999994,0.0));
#566=DIRECTION('',(-1.0,0.0,0.0));
#567=DIRECTION('',(0.0,0.0,1.0));
#568=ORIENTED_EDGE('',*,*,#763,.T.);
#569=ORIENTED_EDGE('',*,*,#764,.F.);
#570=ORIENTED_EDGE('',*,*,#765,.T.);
#571=ORIENTED_EDGE('',*,*,#761,.T.);
#572=CARTESIAN_POINT('',(-0.769999999999982,0.419999999999987,0.0));
#573=DIRECTION('',(0.0,0.0,-1.0));
#574=DIRECTION('',(1.0,0.0,0.0));
#575=ORIENTED_EDGE('',*,*,#766,.T.);
#576=ORIENTED_EDGE('',*,*,#721,.F.);
#577=ORIENTED_EDGE('',*,*,#767,.T.);
#578=ORIENTED_EDGE('',*,*,#764,.T.);
#579=CARTESIAN_POINT('',(-0.634999999999991,0.449999999999989,0.0));
#580=DIRECTION('',(0.0,1.0,0.0));
#581=DIRECTION('',(1.0,-0.0,0.0));
#582=ORIENTED_EDGE('',*,*,#768,.T.);
#583=ORIENTED_EDGE('',*,*,#759,.F.);
#584=ORIENTED_EDGE('',*,*,#769,.T.);
#585=ORIENTED_EDGE('',*,*,#754,.T.);
#586=CARTESIAN_POINT('',(-0.634999999999991,0.0,0.0));
#587=DIRECTION('',(0.0,-1.0,0.0));
#588=DIRECTION('',(0.0,0.0,-1.0));
#589=ORIENTED_EDGE('',*,*,#756,.F.);
#590=ORIENTED_EDGE('',*,*,#768,.F.);
#591=ORIENTED_EDGE('',*,*,#753,.F.);
#592=ORIENTED_EDGE('',*,*,#747,.F.);
#593=ORIENTED_EDGE('',*,*,#742,.F.);
#594=ORIENTED_EDGE('',*,*,#737,.F.);
#595=ORIENTED_EDGE('',*,*,#732,.F.);
#596=ORIENTED_EDGE('',*,*,#727,.F.);
#597=ORIENTED_EDGE('',*,*,#722,.F.);
#598=ORIENTED_EDGE('',*,*,#766,.F.);
#599=ORIENTED_EDGE('',*,*,#763,.F.);
#600=ORIENTED_EDGE('',*,*,#760,.F.);
#601=CARTESIAN_POINT('',(-0.695931292793059,0.224999999999994,0.8));
#602=DIRECTION('',(0.0,0.0,1.0));
#603=DIRECTION('',(1.0,0.0,0.0));
#604=ORIENTED_EDGE('',*,*,#769,.F.);
#605=ORIENTED_EDGE('',*,*,#758,.F.);
#606=ORIENTED_EDGE('',*,*,#762,.F.);
#607=ORIENTED_EDGE('',*,*,#765,.F.);
#608=ORIENTED_EDGE('',*,*,#767,.F.);
#609=ORIENTED_EDGE('',*,*,#720,.T.);
#610=ORIENTED_EDGE('',*,*,#730,.T.);
#611=ORIENTED_EDGE('',*,*,#735,.T.);
#612=ORIENTED_EDGE('',*,*,#740,.T.);
#613=ORIENTED_EDGE('',*,*,#745,.T.);
#614=ORIENTED_EDGE('',*,*,#750,.T.);
#615=ORIENTED_EDGE('',*,*,#755,.T.);
#616=CARTESIAN_POINT('',(-0.695931292793059,0.224999999999994,0.0));
#617=DIRECTION('',(0.0,0.0,1.0));
#618=DIRECTION('',(1.0,0.0,0.0));
#619=ORIENTED_EDGE('',*,*,#654,.T.);
#620=ORIENTED_EDGE('',*,*,#770,.F.);
#621=ORIENTED_EDGE('',*,*,#724,.T.);
#622=ORIENTED_EDGE('',*,*,#726,.T.);
#623=ORIENTED_EDGE('',*,*,#731,.T.);
#624=ORIENTED_EDGE('',*,*,#736,.T.);
#625=ORIENTED_EDGE('',*,*,#741,.T.);
#626=ORIENTED_EDGE('',*,*,#746,.T.);
#627=ORIENTED_EDGE('',*,*,#752,.T.);
#628=ORIENTED_EDGE('',*,*,#771,.F.);
#629=ORIENTED_EDGE('',*,*,#678,.T.);
#630=ORIENTED_EDGE('',*,*,#680,.T.);
#631=ORIENTED_EDGE('',*,*,#669,.T.);
#632=ORIENTED_EDGE('',*,*,#666,.T.);
#633=ORIENTED_EDGE('',*,*,#663,.T.);
#634=ORIENTED_EDGE('',*,*,#660,.T.);
#635=CARTESIAN_POINT('',(2.54518628395317E-14,0.224999999999994,0.795));
#636=DIRECTION('',(0.0,0.0,1.0));
#637=DIRECTION('',(1.0,0.0,0.0));
#638=ORIENTED_EDGE('',*,*,#770,.T.);
#639=ORIENTED_EDGE('',*,*,#653,.F.);
#640=ORIENTED_EDGE('',*,*,#718,.T.);
#641=ORIENTED_EDGE('',*,*,#725,.T.);
#642=CARTESIAN_POINT('',(0.0,0.444999999999996,0.005));
#643=DIRECTION('',(-1.42663658664333E-14,1.0,0.0));
#644=DIRECTION('',(1.0,1.42663658664333E-14,-0.0));
#645=ORIENTED_EDGE('',*,*,#771,.T.);
#646=ORIENTED_EDGE('',*,*,#751,.F.);
#647=ORIENTED_EDGE('',*,*,#710,.T.);
#648=ORIENTED_EDGE('',*,*,#679,.T.);
#649=CARTESIAN_POINT('',(1.06581410364015E-14,0.005,0.005));
#650=DIRECTION('',(0.0,-1.0,0.0));
#651=DIRECTION('',(0.0,0.0,-1.0));
#652=EDGE_CURVE('',#772,#773,#774,.T.);
#653=EDGE_CURVE('',#773,#775,#776,.T.);
#654=EDGE_CURVE('',#777,#775,#778,.T.);
#655=EDGE_CURVE('',#779,#777,#780,.T.);
#656=EDGE_CURVE('',#781,#779,#782,.T.);
#657=EDGE_CURVE('',#781,#783,#784,.T.);
#658=EDGE_CURVE('',#783,#785,#786,.T.);
#659=EDGE_CURVE('',#772,#785,#787,.T.);
#660=EDGE_CURVE('',#788,#777,#789,.T.);
#661=EDGE_CURVE('',#790,#788,#791,.T.);
#662=EDGE_CURVE('',#779,#790,#792,.T.);
#663=EDGE_CURVE('',#793,#788,#794,.T.);
#664=EDGE_CURVE('',#795,#793,#796,.T.);
#665=EDGE_CURVE('',#790,#795,#797,.T.);
#666=EDGE_CURVE('',#798,#793,#799,.T.);
#667=EDGE_CURVE('',#800,#798,#801,.T.);
#668=EDGE_CURVE('',#795,#800,#802,.T.);
#669=EDGE_CURVE('',#803,#798,#804,.T.);
#670=EDGE_CURVE('',#805,#803,#806,.T.);
#671=EDGE_CURVE('',#800,#805,#807,.T.);
#672=EDGE_CURVE('',#808,#809,#810,.T.);
#673=EDGE_CURVE('',#808,#811,#812,.T.);
#674=EDGE_CURVE('',#811,#813,#814,.T.);
#675=EDGE_CURVE('',#815,#813,#816,.T.);
#676=EDGE_CURVE('',#817,#815,#818,.T.);
#677=EDGE_CURVE('',#817,#819,#820,.T.);
#678=EDGE_CURVE('',#821,#819,#822,.T.);
#679=EDGE_CURVE('',#809,#821,#823,.T.);
#680=EDGE_CURVE('',#819,#803,#824,.T.);
#681=EDGE_CURVE('',#805,#817,#825,.T.);
#682=EDGE_CURVE('',#826,#827,#828,.T.);
#683=EDGE_CURVE('',#829,#827,#830,.T.);
#684=EDGE_CURVE('',#829,#831,#832,.T.);
#685=EDGE_CURVE('',#831,#826,#833,.T.);
#686=EDGE_CURVE('',#827,#834,#835,.T.);
#687=EDGE_CURVE('',#836,#834,#837,.T.);
#688=EDGE_CURVE('',#836,#829,#838,.T.);
#689=EDGE_CURVE('',#834,#839,#840,.T.);
#690=EDGE_CURVE('',#841,#839,#842,.T.);
#691=EDGE_CURVE('',#841,#836,#843,.T.);
#692=EDGE_CURVE('',#839,#783,#844,.T.);
#693=EDGE_CURVE('',#781,#841,#845,.T.);
#694=EDGE_CURVE('',#772,#846,#847,.T.);
#695=EDGE_CURVE('',#785,#848,#849,.T.);
#696=EDGE_CURVE('',#846,#848,#850,.T.);
#697=EDGE_CURVE('',#846,#851,#852,.T.);
#698=EDGE_CURVE('',#848,#853,#854,.T.);
#699=EDGE_CURVE('',#851,#853,#855,.T.);
#700=EDGE_CURVE('',#851,#856,#857,.T.);
#701=EDGE_CURVE('',#853,#858,#859,.T.);
#702=EDGE_CURVE('',#856,#858,#860,.T.);
#703=EDGE_CURVE('',#856,#861,#862,.T.);
#704=EDGE_CURVE('',#858,#863,#864,.T.);
#705=EDGE_CURVE('',#861,#863,#865,.T.);
#706=EDGE_CURVE('',#861,#808,#866,.T.);
#707=EDGE_CURVE('',#863,#811,#867,.T.);
#708=EDGE_CURVE('',#813,#826,#868,.T.);
#709=EDGE_CURVE('',#831,#815,#869,.T.);
#710=EDGE_CURVE('',#870,#809,#871,.T.);
#711=EDGE_CURVE('',#872,#870,#873,.T.);
#712=EDGE_CURVE('',#872,#874,#875,.T.);
#713=EDGE_CURVE('',#874,#876,#877,.T.);
#714=EDGE_CURVE('',#876,#878,#879,.T.);
#715=EDGE_CURVE('',#878,#880,#881,.T.);
#716=EDGE_CURVE('',#880,#882,#883,.T.);
#717=EDGE_CURVE('',#884,#882,#885,.T.);
#718=EDGE_CURVE('',#773,#884,#886,.T.);
#719=EDGE_CURVE('',#887,#882,#888,.T.);
#720=EDGE_CURVE('',#889,#887,#890,.T.);
#721=EDGE_CURVE('',#889,#891,#892,.T.);
#722=EDGE_CURVE('',#891,#893,#894,.T.);
#723=EDGE_CURVE('',#895,#893,#896,.T.);
#724=EDGE_CURVE('',#897,#895,#898,.T.);
#725=EDGE_CURVE('',#884,#897,#899,.T.);
#726=EDGE_CURVE('',#895,#900,#901,.T.);
#727=EDGE_CURVE('',#893,#902,#903,.T.);
#728=EDGE_CURVE('',#900,#902,#904,.T.);
#729=EDGE_CURVE('',#905,#880,#906,.T.);
#730=EDGE_CURVE('',#887,#905,#907,.T.);
#731=EDGE_CURVE('',#900,#908,#909,.T.);
#732=EDGE_CURVE('',#902,#910,#911,.T.);
#733=EDGE_CURVE('',#908,#910,#912,.T.);
#734=EDGE_CURVE('',#913,#878,#914,.T.);
#735=EDGE_CURVE('',#905,#913,#915,.T.);
#736=EDGE_CURVE('',#908,#916,#917,.T.);
#737=EDGE_CURVE('',#910,#918,#919,.T.);
#738=EDGE_CURVE('',#916,#918,#920,.T.);
#739=EDGE_CURVE('',#921,#876,#922,.T.);
#740=EDGE_CURVE('',#913,#921,#923,.T.);
#741=EDGE_CURVE('',#916,#924,#925,.T.);
#742=EDGE_CURVE('',#918,#926,#927,.T.);
#743=EDGE_CURVE('',#924,#926,#928,.T.);
#744=EDGE_CURVE('',#929,#874,#930,.T.);
#745=EDGE_CURVE('',#921,#929,#931,.T.);
#746=EDGE_CURVE('',#924,#932,#933,.T.);
#747=EDGE_CURVE('',#926,#934,#935,.T.);
#748=EDGE_CURVE('',#932,#934,#936,.T.);
#749=EDGE_CURVE('',#937,#872,#938,.T.);
#750=EDGE_CURVE('',#929,#937,#939,.T.);
#751=EDGE_CURVE('',#870,#940,#941,.T.);
#752=EDGE_CURVE('',#932,#940,#942,.T.);
#753=EDGE_CURVE('',#934,#943,#944,.T.);
#754=EDGE_CURVE('',#945,#943,#946,.T.);
#755=EDGE_CURVE('',#937,#945,#947,.T.);
#756=EDGE_CURVE('',#948,#949,#950,.T.);
#757=EDGE_CURVE('',#951,#949,#952,.T.);
#758=EDGE_CURVE('',#951,#953,#954,.T.);
#759=EDGE_CURVE('',#953,#948,#955,.T.);
#760=EDGE_CURVE('',#949,#956,#957,.T.);
#761=EDGE_CURVE('',#958,#956,#959,.T.);
#762=EDGE_CURVE('',#958,#951,#960,.T.);
#763=EDGE_CURVE('',#956,#961,#962,.T.);
#764=EDGE_CURVE('',#963,#961,#964,.T.);
#765=EDGE_CURVE('',#963,#958,#965,.T.);
#766=EDGE_CURVE('',#961,#891,#966,.T.);
#767=EDGE_CURVE('',#889,#963,#967,.T.);
#768=EDGE_CURVE('',#943,#948,#968,.T.);
#769=EDGE_CURVE('',#953,#945,#969,.T.);
#770=EDGE_CURVE('',#897,#775,#970,.T.);
#771=EDGE_CURVE('',#821,#940,#971,.T.);
#772=VERTEX_POINT('',#972);
#773=VERTEX_POINT('',#973);
#774=LINE('',#974,#975);
#775=VERTEX_POINT('',#976);
#776=LINE('',#977,#978);
#777=VERTEX_POINT('',#979);
#778=LINE('',#980,#981);
#779=VERTEX_POINT('',#982);
#780=LINE('',#983,#984);
#781=VERTEX_POINT('',#985);
#782=LINE('',#986,#987);
#783=VERTEX_POINT('',#988);
#784=LINE('',#989,#990);
#785=VERTEX_POINT('',#991);
#786=LINE('',#992,#993);
#787=LINE('',#994,#995);
#788=VERTEX_POINT('',#996);
#789=LINE('',#997,#998);
#790=VERTEX_POINT('',#999);
#791=LINE('',#1000,#1001);
#792=LINE('',#1002,#1003);
#793=VERTEX_POINT('',#1004);
#794=CIRCLE('',#1005,0.01);
#795=VERTEX_POINT('',#1006);
#796=LINE('',#1007,#1008);
#797=CIRCLE('',#1009,0.01);
#798=VERTEX_POINT('',#1010);
#799=LINE('',#1011,#1012);
#800=VERTEX_POINT('',#1013);
#801=LINE('',#1014,#1015);
#802=LINE('',#1016,#1017);
#803=VERTEX_POINT('',#1018);
#804=CIRCLE('',#1019,0.01);
#805=VERTEX_POINT('',#1020);
#806=LINE('',#1021,#1022);
#807=CIRCLE('',#1023,0.01);
#808=VERTEX_POINT('',#1024);
#809=VERTEX_POINT('',#1025);
#810=LINE('',#1026,#1027);
#811=VERTEX_POINT('',#1028);
#812=LINE('',#1029,#1030);
#813=VERTEX_POINT('',#1031);
#814=LINE('',#1032,#1033);
#815=VERTEX_POINT('',#1034);
#816=LINE('',#1035,#1036);
#817=VERTEX_POINT('',#1037);
#818=LINE('',#1038,#1039);
#819=VERTEX_POINT('',#1040);
#820=LINE('',#1041,#1042);
#821=VERTEX_POINT('',#1043);
#822=LINE('',#1044,#1045);
#823=LINE('',#1046,#1047);
#824=LINE('',#1048,#1049);
#825=LINE('',#1050,#1051);
#826=VERTEX_POINT('',#1052);
#827=VERTEX_POINT('',#1053);
#828=CIRCLE('',#1054,0.03);
#829=VERTEX_POINT('',#1055);
#830=LINE('',#1056,#1057);
#831=VERTEX_POINT('',#1058);
#832=CIRCLE('',#1059,0.03);
#833=LINE('',#1060,#1061);
#834=VERTEX_POINT('',#1062);
#835=LINE('',#1063,#1064);
#836=VERTEX_POINT('',#1065);
#837=LINE('',#1066,#1067);
#838=LINE('',#1068,#1069);
#839=VERTEX_POINT('',#1070);
#840=CIRCLE('',#1071,0.03);
#841=VERTEX_POINT('',#1072);
#842=LINE('',#1073,#1074);
#843=CIRCLE('',#1075,0.03);
#844=LINE('',#1076,#1077);
#845=LINE('',#1078,#1079);
#846=VERTEX_POINT('',#1080);
#847=LINE('',#1081,#1082);
#848=VERTEX_POINT('',#1083);
#849=LINE('',#1084,#1085);
#850=LINE('',#1086,#1087);
#851=VERTEX_POINT('',#1088);
#852=CIRCLE('',#1089,0.01);
#853=VERTEX_POINT('',#1090);
#854=CIRCLE('',#1091,0.01);
#855=LINE('',#1092,#1093);
#856=VERTEX_POINT('',#1094);
#857=LINE('',#1095,#1096);
#858=VERTEX_POINT('',#1097);
#859=LINE('',#1098,#1099);
#860=LINE('',#1100,#1101);
#861=VERTEX_POINT('',#1102);
#862=CIRCLE('',#1103,0.01);
#863=VERTEX_POINT('',#1104);
#864=CIRCLE('',#1105,0.01);
#865=LINE('',#1106,#1107);
#866=LINE('',#1108,#1109);
#867=LINE('',#1110,#1111);
#868=LINE('',#1112,#1113);
#869=LINE('',#1114,#1115);
#870=VERTEX_POINT('',#1116);
#871=LINE('',#1117,#1118);
#872=VERTEX_POINT('',#1119);
#873=LINE('',#1120,#1121);
#874=VERTEX_POINT('',#1122);
#875=LINE('',#1123,#1124);
#876=VERTEX_POINT('',#1125);
#877=CIRCLE('',#1126,0.01);
#878=VERTEX_POINT('',#1127);
#879=LINE('',#1128,#1129);
#880=VERTEX_POINT('',#1130);
#881=CIRCLE('',#1131,0.01);
#882=VERTEX_POINT('',#1132);
#883=LINE('',#1133,#1134);
#884=VERTEX_POINT('',#1135);
#885=LINE('',#1136,#1137);
#886=LINE('',#1138,#1139);
#887=VERTEX_POINT('',#1140);
#888=LINE('',#1141,#1142);
#889=VERTEX_POINT('',#1143);
#890=LINE('',#1144,#1145);
#891=VERTEX_POINT('',#1146);
#892=LINE('',#1147,#1148);
#893=VERTEX_POINT('',#1149);
#894=LINE('',#1150,#1151);
#895=VERTEX_POINT('',#1152);
#896=LINE('',#1153,#1154);
#897=VERTEX_POINT('',#1155);
#898=LINE('',#1156,#1157);
#899=LINE('',#1158,#1159);
#900=VERTEX_POINT('',#1160);
#901=LINE('',#1161,#1162);
#902=VERTEX_POINT('',#1163);
#903=LINE('',#1164,#1165);
#904=LINE('',#1166,#1167);
#905=VERTEX_POINT('',#1168);
#906=LINE('',#1169,#1170);
#907=LINE('',#1171,#1172);
#908=VERTEX_POINT('',#1173);
#909=CIRCLE('',#1174,0.01);
#910=VERTEX_POINT('',#1175);
#911=CIRCLE('',#1176,0.01);
#912=LINE('',#1177,#1178);
#913=VERTEX_POINT('',#1179);
#914=LINE('',#1180,#1181);
#915=CIRCLE('',#1182,0.01);
#916=VERTEX_POINT('',#1183);
#917=LINE('',#1184,#1185);
#918=VERTEX_POINT('',#1186);
#919=LINE('',#1187,#1188);
#920=LINE('',#1189,#1190);
#921=VERTEX_POINT('',#1191);
#922=LINE('',#1192,#1193);
#923=LINE('',#1194,#1195);
#924=VERTEX_POINT('',#1196);
#925=CIRCLE('',#1197,0.01);
#926=VERTEX_POINT('',#1198);
#927=CIRCLE('',#1199,0.01);
#928=LINE('',#1200,#1201);
#929=VERTEX_POINT('',#1202);
#930=LINE('',#1203,#1204);
#931=CIRCLE('',#1205,0.01);
#932=VERTEX_POINT('',#1206);
#933=LINE('',#1207,#1208);
#934=VERTEX_POINT('',#1209);
#935=LINE('',#1210,#1211);
#936=LINE('',#1212,#1213);
#937=VERTEX_POINT('',#1214);
#938=LINE('',#1215,#1216);
#939=LINE('',#1217,#1218);
#940=VERTEX_POINT('',#1219);
#941=LINE('',#1220,#1221);
#942=LINE('',#1222,#1223);
#943=VERTEX_POINT('',#1224);
#944=LINE('',#1225,#1226);
#945=VERTEX_POINT('',#1227);
#946=LINE('',#1228,#1229);
#947=LINE('',#1230,#1231);
#948=VERTEX_POINT('',#1232);
#949=VERTEX_POINT('',#1233);
#950=CIRCLE('',#1234,0.03);
#951=VERTEX_POINT('',#1235);
#952=LINE('',#1236,#1237);
#953=VERTEX_POINT('',#1238);
#954=CIRCLE('',#1239,0.03);
#955=LINE('',#1240,#1241);
#956=VERTEX_POINT('',#1242);
#957=LINE('',#1243,#1244);
#958=VERTEX_POINT('',#1245);
#959=LINE('',#1246,#1247);
#960=LINE('',#1248,#1249);
#961=VERTEX_POINT('',#1250);
#962=CIRCLE('',#1251,0.03);
#963=VERTEX_POINT('',#1252);
#964=LINE('',#1253,#1254);
#965=CIRCLE('',#1255,0.03);
#966=LINE('',#1256,#1257);
#967=LINE('',#1258,#1259);
#968=LINE('',#1260,#1261);
#969=LINE('',#1262,#1263);
#970=LINE('',#1264,#1265);
#971=LINE('',#1266,#1267);
#972=CARTESIAN_POINT('',(0.5,0.419999999999989,0.005));
#973=CARTESIAN_POINT('',(0.5,0.445000000000003,0.005));
#974=CARTESIAN_POINT('',(0.500000000000028,0.430000000000007,0.005));
#975=VECTOR('',#1268,1.0);
#976=CARTESIAN_POINT('',(0.5,0.445000000000003,0.795));
#977=CARTESIAN_POINT('',(0.5,0.445000000000003,0.005));
#978=VECTOR('',#1269,1.0);
#979=CARTESIAN_POINT('',(0.5,0.419999999999989,0.795));
#980=CARTESIAN_POINT('',(0.5,0.32999999999999,0.795));
#981=VECTOR('',#1270,1.0);
#982=CARTESIAN_POINT('',(0.5,0.419999999999989,0.8));
#983=CARTESIAN_POINT('',(0.5,0.419999999999989,0.8));
#984=VECTOR('',#1271,1.0);
#985=CARTESIAN_POINT('',(0.5,0.449999999999989,0.8));
#986=CARTESIAN_POINT('',(0.5,0.449999999999989,0.8));
#987=VECTOR('',#1272,1.0);
#988=CARTESIAN_POINT('',(0.5,0.449999999999989,1.11022302462516E-16));
#989=CARTESIAN_POINT('',(0.5,0.449999999999989,0.8));
#990=VECTOR('',#1273,1.0);
#991=CARTESIAN_POINT('',(0.5,0.419999999999989,1.11022302462516E-16));
#992=CARTESIAN_POINT('',(0.5,0.449999999999989,1.11022302462516E-16));
#993=VECTOR('',#1274,1.0);
#994=CARTESIAN_POINT('',(0.5,0.419999999999989,0.8));
#995=VECTOR('',#1275,1.0);
#996=CARTESIAN_POINT('',(0.759999999999983,0.419999999999989,0.795));
#997=CARTESIAN_POINT('',(0.315000000000008,0.419999999999989,0.795));
#998=VECTOR('',#1276,1.0);
#999=CARTESIAN_POINT('',(0.759999999999983,0.419999999999989,0.8));
#1000=CARTESIAN_POINT('',(0.759999999999983,0.419999999999989,0.8));
#1001=VECTOR('',#1277,1.0);
#1002=CARTESIAN_POINT('',(0.5,0.419999999999989,0.8));
#1003=VECTOR('',#1278,1.0);
#1004=CARTESIAN_POINT('',(0.769999999999983,0.409999999999989,0.795));
#1005=AXIS2_PLACEMENT_3D('',#1279,#1280,#1281);
#1006=CARTESIAN_POINT('',(0.769999999999983,0.409999999999989,0.8));
#1007=CARTESIAN_POINT('',(0.769999999999983,0.409999999999989,0.8));
#1008=VECTOR('',#1282,1.0);
#1009=AXIS2_PLACEMENT_3D('',#1283,#1284,#1285);
#1010=CARTESIAN_POINT('',(0.769999999999983,0.04,0.795));
#1011=CARTESIAN_POINT('',(0.769999999999983,0.224999999999994,0.795));
#1012=VECTOR('',#1286,1.0);
#1013=CARTESIAN_POINT('',(0.769999999999983,0.04,0.8));
#1014=CARTESIAN_POINT('',(0.769999999999983,0.04,0.8));
#1015=VECTOR('',#1287,1.0);
#1016=CARTESIAN_POINT('',(0.769999999999983,0.409999999999989,0.8));
#1017=VECTOR('',#1288,1.0);
#1018=CARTESIAN_POINT('',(0.759999999999983,0.03,0.795));
#1019=AXIS2_PLACEMENT_3D('',#1289,#1290,#1291);
#1020=CARTESIAN_POINT('',(0.759999999999983,0.03,0.8));
#1021=CARTESIAN_POINT('',(0.759999999999983,0.03,0.8));
#1022=VECTOR('',#1292,1.0);
#1023=AXIS2_PLACEMENT_3D('',#1293,#1294,#1295);
#1024=CARTESIAN_POINT('',(0.5,0.03,0.005));
#1025=CARTESIAN_POINT('',(0.499999999999993,0.005,0.005));
#1026=CARTESIAN_POINT('',(0.5,0.119999999999997,0.005));
#1027=VECTOR('',#1296,1.0);
#1028=CARTESIAN_POINT('',(0.5,0.03,1.11022302462516E-16));
#1029=CARTESIAN_POINT('',(0.5,0.03,0.8));
#1030=VECTOR('',#1297,1.0);
#1031=CARTESIAN_POINT('',(0.5,0.0,1.11022302462516E-16));
#1032=CARTESIAN_POINT('',(0.5,0.03,1.11022302462516E-16));
#1033=VECTOR('',#1298,1.0);
#1034=CARTESIAN_POINT('',(0.5,0.0,0.8));
#1035=CARTESIAN_POINT('',(0.5,0.0,0.8));
#1036=VECTOR('',#1299,1.0);
#1037=CARTESIAN_POINT('',(0.5,0.03,0.8));
#1038=CARTESIAN_POINT('',(0.5,0.03,0.8));
#1039=VECTOR('',#1300,1.0);
#1040=CARTESIAN_POINT('',(0.5,0.03,0.795));
#1041=CARTESIAN_POINT('',(0.5,0.03,0.8));
#1042=VECTOR('',#1301,1.0);
#1043=CARTESIAN_POINT('',(0.499999999999993,0.005,0.795));
#1044=CARTESIAN_POINT('',(0.5,0.119999999999997,0.795));
#1045=VECTOR('',#1302,1.0);
#1046=CARTESIAN_POINT('',(0.499999999999993,0.005,0.005));
#1047=VECTOR('',#1303,1.0);
#1048=CARTESIAN_POINT('',(0.315000000000008,0.03,0.795));
#1049=VECTOR('',#1304,1.0);
#1050=CARTESIAN_POINT('',(0.759999999999983,0.03,0.8));
#1051=VECTOR('',#1305,1.0);
#1052=CARTESIAN_POINT('',(0.769999999999982,0.0,1.11022302462516E-16));
#1053=CARTESIAN_POINT('',(0.799999999999983,0.0300000000000011,1.11022302462516E-16));
#1054=AXIS2_PLACEMENT_3D('',#1306,#1307,#1308);
#1055=CARTESIAN_POINT('',(0.799999999999983,0.0300000000000011,0.8));
#1056=CARTESIAN_POINT('',(0.799999999999983,0.0300000000000011,0.8));
#1057=VECTOR('',#1309,1.0);
#1058=CARTESIAN_POINT('',(0.769999999999982,0.0,0.8));
#1059=AXIS2_PLACEMENT_3D('',#1310,#1311,#1312);
#1060=CARTESIAN_POINT('',(0.769999999999982,0.0,0.8));
#1061=VECTOR('',#1313,1.0);
#1062=CARTESIAN_POINT('',(0.799999999999982,0.419999999999987,1.11022302462516E-16));
#1063=CARTESIAN_POINT('',(0.799999999999983,0.419999999999987,1.11022302462516E-16));
#1064=VECTOR('',#1314,1.0);
#1065=CARTESIAN_POINT('',(0.799999999999982,0.419999999999987,0.8));
#1066=CARTESIAN_POINT('',(0.799999999999982,0.419999999999987,0.8));
#1067=VECTOR('',#1315,1.0);
#1068=CARTESIAN_POINT('',(0.799999999999983,0.419999999999987,0.8));
#1069=VECTOR('',#1316,1.0);
#1070=CARTESIAN_POINT('',(0.769999999999982,0.449999999999989,1.11022302462516E-16));
#1071=AXIS2_PLACEMENT_3D('',#1317,#1318,#1319);
#1072=CARTESIAN_POINT('',(0.769999999999982,0.449999999999989,0.8));
#1073=CARTESIAN_POINT('',(0.769999999999982,0.449999999999989,0.8));
#1074=VECTOR('',#1320,1.0);
#1075=AXIS2_PLACEMENT_3D('',#1321,#1322,#1323);
#1076=CARTESIAN_POINT('',(0.5,0.449999999999989,1.11022302462516E-16));
#1077=VECTOR('',#1324,1.0);
#1078=CARTESIAN_POINT('',(0.5,0.449999999999989,0.8));
#1079=VECTOR('',#1325,1.0);
#1080=CARTESIAN_POINT('',(0.759999999999983,0.419999999999989,0.005));
#1081=CARTESIAN_POINT('',(0.315000000000008,0.419999999999989,0.005));
#1082=VECTOR('',#1326,1.0);
#1083=CARTESIAN_POINT('',(0.759999999999983,0.419999999999989,1.11022302462516E-16));
#1084=CARTESIAN_POINT('',(0.5,0.419999999999989,1.11022302462516E-16));
#1085=VECTOR('',#1327,1.0);
#1086=CARTESIAN_POINT('',(0.759999999999983,0.419999999999989,0.8));
#1087=VECTOR('',#1328,1.0);
#1088=CARTESIAN_POINT('',(0.769999999999983,0.409999999999989,0.005));
#1089=AXIS2_PLACEMENT_3D('',#1329,#1330,#1331);
#1090=CARTESIAN_POINT('',(0.769999999999983,0.409999999999989,1.11022302462516E-16));
#1091=AXIS2_PLACEMENT_3D('',#1332,#1333,#1334);
#1092=CARTESIAN_POINT('',(0.769999999999983,0.409999999999989,0.8));
#1093=VECTOR('',#1335,1.0);
#1094=CARTESIAN_POINT('',(0.769999999999983,0.04,0.005));
#1095=CARTESIAN_POINT('',(0.769999999999983,0.224999999999994,0.005));
#1096=VECTOR('',#1336,1.0);
#1097=CARTESIAN_POINT('',(0.769999999999983,0.04,1.11022302462516E-16));
#1098=CARTESIAN_POINT('',(0.769999999999983,0.409999999999989,1.11022302462516E-16));
#1099=VECTOR('',#1337,1.0);
#1100=CARTESIAN_POINT('',(0.769999999999983,0.04,0.8));
#1101=VECTOR('',#1338,1.0);
#1102=CARTESIAN_POINT('',(0.759999999999983,0.03,0.005));
#1103=AXIS2_PLACEMENT_3D('',#1339,#1340,#1341);
#1104=CARTESIAN_POINT('',(0.759999999999983,0.03,1.11022302462516E-16));
#1105=AXIS2_PLACEMENT_3D('',#1342,#1343,#1344);
#1106=CARTESIAN_POINT('',(0.759999999999983,0.03,0.8));
#1107=VECTOR('',#1345,1.0);
#1108=CARTESIAN_POINT('',(0.315000000000008,0.03,0.005));
#1109=VECTOR('',#1346,1.0);
#1110=CARTESIAN_POINT('',(0.759999999999983,0.03,1.11022302462516E-16));
#1111=VECTOR('',#1347,1.0);
#1112=CARTESIAN_POINT('',(0.769999999999982,0.0,1.11022302462516E-16));
#1113=VECTOR('',#1348,1.0);
#1114=CARTESIAN_POINT('',(0.769999999999982,0.0,0.8));
#1115=VECTOR('',#1349,1.0);
#1116=CARTESIAN_POINT('',(-0.499999999999972,0.005,0.005));
#1117=CARTESIAN_POINT('',(-0.499999999999972,0.005,0.005));
#1118=VECTOR('',#1350,1.0);
#1119=CARTESIAN_POINT('',(-0.5,0.03,0.005));
#1120=CARTESIAN_POINT('',(-0.499999999999972,0.019999999999996,0.005));
#1121=VECTOR('',#1351,1.0);
#1122=CARTESIAN_POINT('',(-0.759999999999983,0.03,0.005));
#1123=CARTESIAN_POINT('',(-0.314999999999983,0.03,0.005));
#1124=VECTOR('',#1352,1.0);
#1125=CARTESIAN_POINT('',(-0.769999999999983,0.04,0.005));
#1126=AXIS2_PLACEMENT_3D('',#1353,#1354,#1355);
#1127=CARTESIAN_POINT('',(-0.769999999999983,0.409999999999989,0.005));
#1128=CARTESIAN_POINT('',(-0.769999999999983,0.224999999999994,0.005));
#1129=VECTOR('',#1356,1.0);
#1130=CARTESIAN_POINT('',(-0.759999999999983,0.419999999999989,0.005));
#1131=AXIS2_PLACEMENT_3D('',#1357,#1358,#1359);
#1132=CARTESIAN_POINT('',(-0.5,0.419999999999989,0.005));
#1133=CARTESIAN_POINT('',(-0.314999999999983,0.419999999999989,0.005));
#1134=VECTOR('',#1360,1.0);
#1135=CARTESIAN_POINT('',(-0.5,0.444999999999989,0.005));
#1136=CARTESIAN_POINT('',(-0.5,0.444999999999989,0.005));
#1137=VECTOR('',#1361,1.0);
#1138=CARTESIAN_POINT('',(0.5,0.445000000000003,0.005));
#1139=VECTOR('',#1362,1.0);
#1140=CARTESIAN_POINT('',(-0.5,0.419999999999989,0.0));
#1141=CARTESIAN_POINT('',(-0.5,0.419999999999989,0.0));
#1142=VECTOR('',#1363,1.0);
#1143=CARTESIAN_POINT('',(-0.5,0.449999999999989,0.0));
#1144=CARTESIAN_POINT('',(-0.5,0.449999999999989,0.0));
#1145=VECTOR('',#1364,1.0);
#1146=CARTESIAN_POINT('',(-0.5,0.449999999999989,0.8));
#1147=CARTESIAN_POINT('',(-0.5,0.449999999999989,0.0));
#1148=VECTOR('',#1365,1.0);
#1149=CARTESIAN_POINT('',(-0.5,0.419999999999989,0.8));
#1150=CARTESIAN_POINT('',(-0.5,0.449999999999989,0.8));
#1151=VECTOR('',#1366,1.0);
#1152=CARTESIAN_POINT('',(-0.5,0.419999999999989,0.795));
#1153=CARTESIAN_POINT('',(-0.5,0.419999999999989,0.0));
#1154=VECTOR('',#1367,1.0);
#1155=CARTESIAN_POINT('',(-0.5,0.444999999999989,0.795));
#1156=CARTESIAN_POINT('',(-0.5,0.32999999999999,0.795));
#1157=VECTOR('',#1368,1.0);
#1158=CARTESIAN_POINT('',(-0.5,0.444999999999989,0.005));
#1159=VECTOR('',#1369,1.0);
#1160=CARTESIAN_POINT('',(-0.759999999999983,0.419999999999989,0.795));
#1161=CARTESIAN_POINT('',(-0.314999999999983,0.419999999999989,0.795));
#1162=VECTOR('',#1370,1.0);
#1163=CARTESIAN_POINT('',(-0.759999999999983,0.419999999999989,0.8));
#1164=CARTESIAN_POINT('',(-0.5,0.419999999999989,0.8));
#1165=VECTOR('',#1371,1.0);
#1166=CARTESIAN_POINT('',(-0.759999999999983,0.419999999999989,0.0));
#1167=VECTOR('',#1372,1.0);
#1168=CARTESIAN_POINT('',(-0.759999999999983,0.419999999999989,0.0));
#1169=CARTESIAN_POINT('',(-0.759999999999983,0.419999999999989,0.0));
#1170=VECTOR('',#1373,1.0);
#1171=CARTESIAN_POINT('',(-0.5,0.419999999999989,0.0));
#1172=VECTOR('',#1374,1.0);
#1173=CARTESIAN_POINT('',(-0.769999999999983,0.409999999999989,0.795));
#1174=AXIS2_PLACEMENT_3D('',#1375,#1376,#1377);
#1175=CARTESIAN_POINT('',(-0.769999999999983,0.409999999999989,0.8));
#1176=AXIS2_PLACEMENT_3D('',#1378,#1379,#1380);
#1177=CARTESIAN_POINT('',(-0.769999999999983,0.409999999999989,0.0));
#1178=VECTOR('',#1381,1.0);
#1179=CARTESIAN_POINT('',(-0.769999999999983,0.409999999999989,0.0));
#1180=CARTESIAN_POINT('',(-0.769999999999983,0.409999999999989,0.0));
#1181=VECTOR('',#1382,1.0);
#1182=AXIS2_PLACEMENT_3D('',#1383,#1384,#1385);
#1183=CARTESIAN_POINT('',(-0.769999999999983,0.04,0.795));
#1184=CARTESIAN_POINT('',(-0.769999999999983,0.224999999999994,0.795));
#1185=VECTOR('',#1386,1.0);
#1186=CARTESIAN_POINT('',(-0.769999999999983,0.04,0.8));
#1187=CARTESIAN_POINT('',(-0.769999999999983,0.409999999999989,0.8));
#1188=VECTOR('',#1387,1.0);
#1189=CARTESIAN_POINT('',(-0.769999999999983,0.04,0.0));
#1190=VECTOR('',#1388,1.0);
#1191=CARTESIAN_POINT('',(-0.769999999999983,0.04,0.0));
#1192=CARTESIAN_POINT('',(-0.769999999999983,0.04,0.0));
#1193=VECTOR('',#1389,1.0);
#1194=CARTESIAN_POINT('',(-0.769999999999983,0.409999999999989,0.0));
#1195=VECTOR('',#1390,1.0);
#1196=CARTESIAN_POINT('',(-0.759999999999983,0.03,0.795));
#1197=AXIS2_PLACEMENT_3D('',#1391,#1392,#1393);
#1198=CARTESIAN_POINT('',(-0.759999999999983,0.03,0.8));
#1199=AXIS2_PLACEMENT_3D('',#1394,#1395,#1396);
#1200=CARTESIAN_POINT('',(-0.759999999999983,0.03,0.0));
#1201=VECTOR('',#1397,1.0);
#1202=CARTESIAN_POINT('',(-0.759999999999983,0.03,0.0));
#1203=CARTESIAN_POINT('',(-0.759999999999983,0.03,0.0));
#1204=VECTOR('',#1398,1.0);
#1205=AXIS2_PLACEMENT_3D('',#1399,#1400,#1401);
#1206=CARTESIAN_POINT('',(-0.5,0.03,0.795));
#1207=CARTESIAN_POINT('',(-0.314999999999983,0.03,0.795));
#1208=VECTOR('',#1402,1.0);
#1209=CARTESIAN_POINT('',(-0.5,0.03,0.8));
#1210=CARTESIAN_POINT('',(-0.759999999999983,0.03,0.8));
#1211=VECTOR('',#1403,1.0);
#1212=CARTESIAN_POINT('',(-0.5,0.03,0.0));
#1213=VECTOR('',#1404,1.0);
#1214=CARTESIAN_POINT('',(-0.5,0.03,0.0));
#1215=CARTESIAN_POINT('',(-0.5,0.03,0.0));
#1216=VECTOR('',#1405,1.0);
#1217=CARTESIAN_POINT('',(-0.759999999999983,0.03,0.0));
#1218=VECTOR('',#1406,1.0);
#1219=CARTESIAN_POINT('',(-0.499999999999972,0.005,0.795));
#1220=CARTESIAN_POINT('',(-0.499999999999972,0.005,0.005));
#1221=VECTOR('',#1407,1.0);
#1222=CARTESIAN_POINT('',(-0.5,0.119999999999997,0.795));
#1223=VECTOR('',#1408,1.0);
#1224=CARTESIAN_POINT('',(-0.5,0.0,0.8));
#1225=CARTESIAN_POINT('',(-0.5,0.03,0.8));
#1226=VECTOR('',#1409,1.0);
#1227=CARTESIAN_POINT('',(-0.5,0.0,0.0));
#1228=CARTESIAN_POINT('',(-0.5,0.0,0.0));
#1229=VECTOR('',#1410,1.0);
#1230=CARTESIAN_POINT('',(-0.5,0.03,0.0));
#1231=VECTOR('',#1411,1.0);
#1232=CARTESIAN_POINT('',(-0.769999999999982,0.0,0.8));
#1233=CARTESIAN_POINT('',(-0.799999999999983,0.0300000000000011,0.8));
#1234=AXIS2_PLACEMENT_3D('',#1412,#1413,#1414);
#1235=CARTESIAN_POINT('',(-0.799999999999983,0.0300000000000011,0.0));
#1236=CARTESIAN_POINT('',(-0.799999999999983,0.0300000000000011,0.0));
#1237=VECTOR('',#1415,1.0);
#1238=CARTESIAN_POINT('',(-0.769999999999982,0.0,0.0));
#1239=AXIS2_PLACEMENT_3D('',#1416,#1417,#1418);
#1240=CARTESIAN_POINT('',(-0.769999999999982,0.0,0.0));
#1241=VECTOR('',#1419,1.0);
#1242=CARTESIAN_POINT('',(-0.799999999999982,0.419999999999987,0.8));
#1243=CARTESIAN_POINT('',(-0.799999999999983,0.419999999999987,0.8));
#1244=VECTOR('',#1420,1.0);
#1245=CARTESIAN_POINT('',(-0.799999999999982,0.419999999999987,0.0));
#1246=CARTESIAN_POINT('',(-0.799999999999982,0.419999999999987,0.0));
#1247=VECTOR('',#1421,1.0);
#1248=CARTESIAN_POINT('',(-0.799999999999983,0.419999999999987,0.0));
#1249=VECTOR('',#1422,1.0);
#1250=CARTESIAN_POINT('',(-0.769999999999982,0.449999999999989,0.8));
#1251=AXIS2_PLACEMENT_3D('',#1423,#1424,#1425);
#1252=CARTESIAN_POINT('',(-0.769999999999982,0.449999999999989,0.0));
#1253=CARTESIAN_POINT('',(-0.769999999999982,0.449999999999989,0.0));
#1254=VECTOR('',#1426,1.0);
#1255=AXIS2_PLACEMENT_3D('',#1427,#1428,#1429);
#1256=CARTESIAN_POINT('',(-0.5,0.449999999999989,0.8));
#1257=VECTOR('',#1430,1.0);
#1258=CARTESIAN_POINT('',(-0.5,0.449999999999989,0.0));
#1259=VECTOR('',#1431,1.0);
#1260=CARTESIAN_POINT('',(-0.769999999999982,0.0,0.8));
#1261=VECTOR('',#1432,1.0);
#1262=CARTESIAN_POINT('',(-0.769999999999982,0.0,0.0));
#1263=VECTOR('',#1433,1.0);
#1264=CARTESIAN_POINT('',(0.5,0.445000000000003,0.795));
#1265=VECTOR('',#1434,1.0);
#1266=CARTESIAN_POINT('',(-0.499999999999972,0.005,0.795));
#1267=VECTOR('',#1435,1.0);
#1268=DIRECTION('',(-1.89478062869411E-12,1.0,0.0));
#1269=DIRECTION('',(0.0,0.0,1.0));
#1270=DIRECTION('',(3.70074341541718E-15,1.0,-0.0));
#1271=DIRECTION('',(1.22460635382238E-16,0.0,-1.0));
#1272=DIRECTION('',(-3.70074341541718E-15,-1.0,-4.5319539003862E-31));
#1273=DIRECTION('',(1.22460635382238E-16,0.0,-1.0));
#1274=DIRECTION('',(-3.70074341541718E-15,-1.0,-4.5319539003862E-31));
#1275=DIRECTION('',(1.22460635382238E-16,0.0,-1.0));
#1276=DIRECTION('',(-1.0,-0.0,0.0));
#1277=DIRECTION('',(1.22460635382238E-16,0.0,-1.0));
#1278=DIRECTION('',(1.0,0.0,1.22460635382238E-16));
#1279=CARTESIAN_POINT('',(0.759999999999983,0.409999999999989,0.795));
#1280=DIRECTION('',(0.0,0.0,1.0));
#1281=DIRECTION('',(-1.0,0.0,0.0));
#1282=DIRECTION('',(1.22460635382238E-16,0.0,-1.0));
#1283=CARTESIAN_POINT('',(0.759999999999983,0.409999999999989,0.8));
#1284=DIRECTION('',(1.22460635382238E-16,0.0,-1.0));
#1285=DIRECTION('',(-1.0,0.0,-1.22460635382238E-16));
#1286=DIRECTION('',(0.0,1.0,-0.0));
#1287=DIRECTION('',(1.22460635382238E-16,0.0,-1.0));
#1288=DIRECTION('',(0.0,-1.0,-0.0));
#1289=CARTESIAN_POINT('',(0.759999999999983,0.04,0.795));
#1290=DIRECTION('',(0.0,0.0,1.0));
#1291=DIRECTION('',(-1.0,0.0,0.0));
#1292=DIRECTION('',(1.22460635382238E-16,0.0,-1.0));
#1293=CARTESIAN_POINT('',(0.759999999999983,0.04,0.8));
#1294=DIRECTION('',(1.22460635382238E-16,0.0,-1.0));
#1295=DIRECTION('',(-1.0,0.0,-1.22460635382238E-16));
#1296=DIRECTION('',(-0.0,-1.0,0.0));
#1297=DIRECTION('',(1.22460635382238E-16,0.0,-1.0));
#1298=DIRECTION('',(0.0,-1.0,-0.0));
#1299=DIRECTION('',(1.22460635382238E-16,0.0,-1.0));
#1300=DIRECTION('',(0.0,-1.0,-0.0));
#1301=DIRECTION('',(1.22460635382238E-16,0.0,-1.0));
#1302=DIRECTION('',(0.0,1.0,-0.0));
#1303=DIRECTION('',(0.0,0.0,1.0));
#1304=DIRECTION('',(1.0,0.0,0.0));
#1305=DIRECTION('',(-1.0,0.0,-1.22460635382238E-16));
#1306=CARTESIAN_POINT('',(0.769999999999982,0.0300000000000011,1.11022302462516E-16));
#1307=DIRECTION('',(-1.22460635382238E-16,-0.0,1.0));
#1308=DIRECTION('',(-1.0,0.0,-1.22460635382238E-16));
#1309=DIRECTION('',(1.22460635382238E-16,0.0,-1.0));
#1310=CARTESIAN_POINT('',(0.769999999999982,0.0300000000000011,0.8));
#1311=DIRECTION('',(1.22460635382238E-16,0.0,-1.0));
#1312=DIRECTION('',(-1.0,0.0,-1.22460635382238E-16));
#1313=DIRECTION('',(1.22460635382238E-16,0.0,-1.0));
#1314=DIRECTION('',(0.0,1.0,0.0));
#1315=DIRECTION('',(1.22460635382238E-16,0.0,-1.0));
#1316=DIRECTION('',(0.0,-1.0,-0.0));
#1317=CARTESIAN_POINT('',(0.769999999999982,0.419999999999987,1.11022302462516E-16));
#1318=DIRECTION('',(-1.22460635382238E-16,-0.0,1.0));
#1319=DIRECTION('',(-1.0,0.0,-1.22460635382238E-16));
#1320=DIRECTION('',(1.22460635382238E-16,0.0,-1.0));
#1321=CARTESIAN_POINT('',(0.769999999999982,0.419999999999987,0.8));
#1322=DIRECTION('',(1.22460635382238E-16,0.0,-1.0));
#1323=DIRECTION('',(-1.0,0.0,-1.22460635382238E-16));
#1324=DIRECTION('',(-1.0,0.0,-1.22460635382238E-16));
#1325=DIRECTION('',(1.0,0.0,1.22460635382238E-16));
#1326=DIRECTION('',(1.0,0.0,-0.0));
#1327=DIRECTION('',(1.0,0.0,1.22460635382238E-16));
#1328=DIRECTION('',(1.22460635382238E-16,0.0,-1.0));
#1329=CARTESIAN_POINT('',(0.759999999999983,0.409999999999989,0.00500000000000012));
#1330=DIRECTION('',(0.0,0.0,-1.0));
#1331=DIRECTION('',(-1.0,0.0,0.0));
#1332=CARTESIAN_POINT('',(0.759999999999983,0.409999999999989,1.11022302462516E-16));
#1333=DIRECTION('',(1.22460635382238E-16,0.0,-1.0));
#1334=DIRECTION('',(-1.0,0.0,-1.22460635382238E-16));
#1335=DIRECTION('',(1.22460635382238E-16,0.0,-1.0));
#1336=DIRECTION('',(-0.0,-1.0,0.0));
#1337=DIRECTION('',(0.0,-1.0,-0.0));
#1338=DIRECTION('',(1.22460635382238E-16,0.0,-1.0));
#1339=CARTESIAN_POINT('',(0.759999999999983,0.04,0.00500000000000012));
#1340=DIRECTION('',(0.0,0.0,-1.0));
#1341=DIRECTION('',(-1.0,0.0,0.0));
#1342=CARTESIAN_POINT('',(0.759999999999983,0.04,1.11022302462516E-16));
#1343=DIRECTION('',(1.22460635382238E-16,0.0,-1.0));
#1344=DIRECTION('',(-1.0,0.0,-1.22460635382238E-16));
#1345=DIRECTION('',(1.22460635382238E-16,0.0,-1.0));
#1346=DIRECTION('',(-1.0,0.0,0.0));
#1347=DIRECTION('',(-1.0,0.0,-1.22460635382238E-16));
#1348=DIRECTION('',(1.0,-0.0,1.22460635382238E-16));
#1349=DIRECTION('',(-1.0,0.0,-1.22460635382238E-16));
#1350=DIRECTION('',(1.0,0.0,0.0));
#1351=DIRECTION('',(0.0,-1.0,0.0));
#1352=DIRECTION('',(-1.0,0.0,0.0));
#1353=CARTESIAN_POINT('',(-0.759999999999983,0.04,0.005));
#1354=DIRECTION('',(0.0,0.0,-1.0));
#1355=DIRECTION('',(1.0,0.0,0.0));
#1356=DIRECTION('',(-0.0,1.0,0.0));
#1357=CARTESIAN_POINT('',(-0.759999999999983,0.409999999999989,0.005));
#1358=DIRECTION('',(0.0,0.0,-1.0));
#1359=DIRECTION('',(1.0,0.0,0.0));
#1360=DIRECTION('',(1.0,0.0,-0.0));
#1361=DIRECTION('',(0.0,-1.0,0.0));
#1362=DIRECTION('',(-1.0,-1.42663658664333E-14,0.0));
#1363=DIRECTION('',(0.0,0.0,1.0));
#1364=DIRECTION('',(3.70074341541718E-15,-1.0,0.0));
#1365=DIRECTION('',(0.0,0.0,1.0));
#1366=DIRECTION('',(3.70074341541718E-15,-1.0,0.0));
#1367=DIRECTION('',(0.0,0.0,1.0));
#1368=DIRECTION('',(3.70074341541718E-15,-1.0,0.0));
#1369=DIRECTION('',(0.0,0.0,1.0));
#1370=DIRECTION('',(-1.0,0.0,0.0));
#1371=DIRECTION('',(-1.0,0.0,0.0));
#1372=DIRECTION('',(0.0,0.0,1.0));
#1373=DIRECTION('',(0.0,0.0,1.0));
#1374=DIRECTION('',(-1.0,0.0,0.0));
#1375=CARTESIAN_POINT('',(-0.759999999999983,0.409999999999989,0.795));
#1376=DIRECTION('',(0.0,0.0,1.0));
#1377=DIRECTION('',(1.0,0.0,0.0));
#1378=CARTESIAN_POINT('',(-0.759999999999983,0.409999999999989,0.8));
#1379=DIRECTION('',(0.0,0.0,1.0));
#1380=DIRECTION('',(1.0,0.0,0.0));
#1381=DIRECTION('',(0.0,0.0,1.0));
#1382=DIRECTION('',(0.0,0.0,1.0));
#1383=CARTESIAN_POINT('',(-0.759999999999983,0.409999999999989,0.0));
#1384=DIRECTION('',(0.0,0.0,1.0));
#1385=DIRECTION('',(1.0,0.0,0.0));
#1386=DIRECTION('',(0.0,-1.0,0.0));
#1387=DIRECTION('',(0.0,-1.0,0.0));
#1388=DIRECTION('',(0.0,0.0,1.0));
#1389=DIRECTION('',(0.0,0.0,1.0));
#1390=DIRECTION('',(0.0,-1.0,0.0));
#1391=CARTESIAN_POINT('',(-0.759999999999983,0.04,0.795));
#1392=DIRECTION('',(0.0,0.0,1.0));
#1393=DIRECTION('',(1.0,0.0,0.0));
#1394=CARTESIAN_POINT('',(-0.759999999999983,0.04,0.8));
#1395=DIRECTION('',(0.0,0.0,1.0));
#1396=DIRECTION('',(1.0,0.0,0.0));
#1397=DIRECTION('',(0.0,0.0,1.0));
#1398=DIRECTION('',(0.0,0.0,1.0));
#1399=CARTESIAN_POINT('',(-0.759999999999983,0.04,0.0));
#1400=DIRECTION('',(0.0,0.0,1.0));
#1401=DIRECTION('',(1.0,0.0,0.0));
#1402=DIRECTION('',(1.0,0.0,0.0));
#1403=DIRECTION('',(1.0,0.0,0.0));
#1404=DIRECTION('',(0.0,0.0,1.0));
#1405=DIRECTION('',(0.0,0.0,1.0));
#1406=DIRECTION('',(1.0,0.0,0.0));
#1407=DIRECTION('',(0.0,0.0,1.0));
#1408=DIRECTION('',(0.0,-1.0,0.0));
#1409=DIRECTION('',(0.0,-1.0,0.0));
#1410=DIRECTION('',(0.0,0.0,1.0));
#1411=DIRECTION('',(0.0,-1.0,0.0));
#1412=CARTESIAN_POINT('',(-0.769999999999982,0.0300000000000011,0.8));
#1413=DIRECTION('',(0.0,0.0,-1.0));
#1414=DIRECTION('',(1.0,0.0,0.0));
#1415=DIRECTION('',(0.0,0.0,1.0));
#1416=CARTESIAN_POINT('',(-0.769999999999982,0.0300000000000011,0.0));
#1417=DIRECTION('',(0.0,0.0,1.0));
#1418=DIRECTION('',(1.0,0.0,0.0));
#1419=DIRECTION('',(0.0,0.0,1.0));
#1420=DIRECTION('',(0.0,1.0,0.0));
#1421=DIRECTION('',(0.0,0.0,1.0));
#1422=DIRECTION('',(0.0,-1.0,0.0));
#1423=CARTESIAN_POINT('',(-0.769999999999982,0.419999999999987,0.8));
#1424=DIRECTION('',(0.0,0.0,-1.0));
#1425=DIRECTION('',(1.0,0.0,0.0));
#1426=DIRECTION('',(0.0,0.0,1.0));
#1427=CARTESIAN_POINT('',(-0.769999999999982,0.419999999999987,0.0));
#1428=DIRECTION('',(0.0,0.0,1.0));
#1429=DIRECTION('',(1.0,0.0,0.0));
#1430=DIRECTION('',(1.0,0.0,0.0));
#1431=DIRECTION('',(-1.0,0.0,0.0));
#1432=DIRECTION('',(-1.0,-0.0,-0.0));
#1433=DIRECTION('',(1.0,0.0,0.0));
#1434=DIRECTION('',(1.0,1.42663658664333E-14,0.0));
#1435=DIRECTION('',(-1.0,-0.0,-0.0));
ENDSEC;
END-ISO-10303-21;
